 __       __   ______   __     __  ______  ________  _______    ______   __       __   ______         _______   ________   ______   ______   ______  ________  _______  __      __
|  \     /  \ /      \ |  \   |  \|      \|        \|       \  /      \ |  \     /  \ /      \       |       \ |        \ /      \ |      \ /      \|        \|       \|  \    /  \
| $$\   /  $$|  $$$$$$\| $$   | $$ \$$$$$$| $$$$$$$$| $$$$$$$\|  $$$$$$\| $$\   /  $$|  $$$$$$\      | $$$$$$$\| $$$$$$$$|  $$$$$$\ \$$$$$$|  $$$$$$\\$$$$$$$$| $$$$$$$\\$$\  /  $$
| $$$\ /  $$$| $$  | $$| $$   | $$  | $$  | $$__    | $$__| $$| $$__| $$| $$$\ /  $$$| $$__| $$      | $$__| $$| $$__    | $$ __\$$  | $$  | $$___\$$  | $$   | $$__| $$ \$$\/  $$
| $$$$\  $$$$| $$  | $$ \$$\ /  $$  | $$  | $$  \   | $$    $$| $$    $$| $$$$\  $$$$| $$    $$      | $$    $$| $$  \   | $$|    \  | $$   \$$    \   | $$   | $$    $$  \$$  $$
| $$\$$ $$ $$| $$  | $$  \$$\  $$   | $$  | $$$$$   | $$$$$$$\| $$$$$$$$| $$\$$ $$ $$| $$$$$$$$      | $$$$$$$\| $$$$$   | $$ \$$$$  | $$   _\$$$$$$\  | $$   | $$$$$$$\   \$$$$
| $$ \$$$| $$| $$__/ $$   \$$ $$   _| $$_ | $$_____ | $$  | $$| $$  | $$| $$ \$$$| $$| $$  | $$      | $$  | $$| $$_____ | $$__| $$ _| $$_ |  \__| $$  | $$   | $$  | $$   | $$
| $$  \$ | $$ \$$    $$    \$$$   |   $$ \| $$     \| $$  | $$| $$  | $$| $$  \$ | $$| $$  | $$      | $$  | $$| $$     \ \$$    $$|   $$ \ \$$    $$  | $$   | $$  | $$   | $$
 \$$      \$$  \$$$$$$      \$     \$$$$$$ \$$$$$$$$ \$$   \$$ \$$   \$$ \$$      \$$ \$$   \$$       \$$   \$$ \$$$$$$$$  \$$$$$$  \$$$$$$  \$$$$$$    \$$    \$$   \$$    \$$